<?xml version="1.0" encoding="UTF-8" standalone="no"?>
<!-- Created with Inkscape (http://www.inkscape.org/) -->

<svg
   xmlns:dc="http://purl.org/dc/elements/1.1/"
   xmlns:cc="http://creativecommons.org/ns#"
   xmlns:rdf="http://www.w3.org/1999/02/22-rdf-syntax-ns#"
   xmlns:svg="http://www.w3.org/2000/svg"
   xmlns="http://www.w3.org/2000/svg"
   xmlns:sodipodi="http://sodipodi.sourceforge.net/DTD/sodipodi-0.dtd"
   xmlns:inkscape="http://www.inkscape.org/namespaces/inkscape"
   version="1.1"
   id="svg10"
   xml:space="preserve"
   width="1488"
   height="446.66666"
   viewBox="0 0 1488 446.66665"
   sodipodi:docname="gnuradio-chain.svg"
   inkscape:version="0.92.5 (2060ec1f9f, 2020-04-08)"><metadata
     id="metadata16"><rdf:RDF><cc:Work
         rdf:about=""><dc:format>image/svg+xml</dc:format><dc:type
           rdf:resource="http://purl.org/dc/dcmitype/StillImage" /><dc:title></dc:title></cc:Work></rdf:RDF></metadata><defs
     id="defs14" /><sodipodi:namedview
     pagecolor="#ffffff"
     bordercolor="#666666"
     borderopacity="1"
     objecttolerance="10"
     gridtolerance="10"
     guidetolerance="10"
     inkscape:pageopacity="0"
     inkscape:pageshadow="2"
     inkscape:window-width="3440"
     inkscape:window-height="1377"
     id="namedview12"
     showgrid="false"
     fit-margin-top="0"
     fit-margin-left="0"
     fit-margin-right="0"
     fit-margin-bottom="0"
     inkscape:zoom="1.5646552"
     inkscape:cx="727.33333"
     inkscape:cy="377.33334"
     inkscape:window-x="-8"
     inkscape:window-y="-8"
     inkscape:window-maximized="1"
     inkscape:current-layer="g20" /><g
     id="g18"
     inkscape:groupmode="layer"
     inkscape:label="fmdemod_qt"
     transform="matrix(1.3333333,0,0,1.3333333,-42.666666,-317.33333)"><g
       id="g20"><path
         d="m 199,307 h 15 c 35,0 22,185 57,185 h 2"
         style="fill:none;stroke:#000000;stroke-width:2;stroke-linecap:butt;stroke-linejoin:miter;stroke-miterlimit:10;stroke-dasharray:none;stroke-opacity:1"
         id="path24"
         inkscape:connector-curvature="0" /><path
         d="m 286,492 -13,-5 v 10 z"
         style="fill:#000000;fill-opacity:1;fill-rule:nonzero;stroke:none"
         id="path26"
         inkscape:connector-curvature="0" /><path
         d="m 929,307 h 15 c 35,0 3,0 38,0 h 2"
         style="fill:none;stroke:#000000;stroke-width:2;stroke-linecap:butt;stroke-linejoin:miter;stroke-miterlimit:10;stroke-dasharray:none;stroke-opacity:1"
         id="path28"
         inkscape:connector-curvature="0" /><path
         d="m 997,307 -13,-5 v 10 z"
         style="fill:#000000;fill-opacity:1;fill-rule:nonzero;stroke:none"
         id="path30"
         inkscape:connector-curvature="0" /><path
         d="m 712,307 h 15 c 35,0 12,0 47,0 h 2"
         style="fill:none;stroke:#000000;stroke-width:2;stroke-linecap:butt;stroke-linejoin:miter;stroke-miterlimit:10;stroke-dasharray:none;stroke-opacity:1"
         id="path32"
         inkscape:connector-curvature="0" /><path
         d="m 789,307 -13,-5 v 10 z"
         style="fill:#000000;fill-opacity:1;fill-rule:nonzero;stroke:none"
         id="path34"
         inkscape:connector-curvature="0" /><path
         d="m 199,307 h 15 c 35,0 61,0 96,0 h 2"
         style="fill:none;stroke:#000000;stroke-width:2;stroke-linecap:butt;stroke-linejoin:miter;stroke-miterlimit:10;stroke-dasharray:none;stroke-opacity:1"
         id="path36"
         inkscape:connector-curvature="0" /><path
         d="m 325,307 -13,-5 v 10 z"
         style="fill:#000000;fill-opacity:1;fill-rule:nonzero;stroke:none"
         id="path38"
         inkscape:connector-curvature="0" /><path
         d="m 489,307 h 15 c 35,0 -6,0 29,0 h 2"
         style="fill:none;stroke:#000000;stroke-width:2;stroke-linecap:butt;stroke-linejoin:miter;stroke-miterlimit:10;stroke-dasharray:none;stroke-opacity:1"
         id="path40"
         inkscape:connector-curvature="0" /><path
         d="m 548,307 -13,-5 v 10 z"
         style="fill:#000000;fill-opacity:1;fill-rule:nonzero;stroke:none"
         id="path42"
         inkscape:connector-curvature="0" /><path
         d="m 712,307 h 15 c 35,0 21,63 56,63 h 2"
         style="fill:none;stroke:#000000;stroke-width:2;stroke-linecap:butt;stroke-linejoin:miter;stroke-miterlimit:10;stroke-dasharray:none;stroke-opacity:1"
         id="path44"
         inkscape:connector-curvature="0" /><path
         d="m 798,370 -13,-5 v 10 z"
         style="fill:#000000;fill-opacity:1;fill-rule:nonzero;stroke:none"
         id="path46"
         inkscape:connector-curvature="0" /><path
         d="m 199,307 h 15 c 35,0 20,77 55,77 h 2"
         style="fill:none;stroke:#000000;stroke-width:2;stroke-linecap:butt;stroke-linejoin:miter;stroke-miterlimit:10;stroke-dasharray:none;stroke-opacity:1"
         id="path48"
         inkscape:connector-curvature="0" /><path
         d="m 284,384 -13,-5 v 10 z"
         style="fill:#000000;fill-opacity:1;fill-rule:nonzero;stroke:none"
         id="path50"
         inkscape:connector-curvature="0" /><path
         d="M 35.685951,386.09091 H 171.68595 v 120 H 35.685951 Z"
         style="fill:#f1ecff;fill-opacity:1;fill-rule:nonzero;stroke:#616161;stroke-width:2;stroke-linecap:butt;stroke-linejoin:miter;stroke-miterlimit:10;stroke-dasharray:none;stroke-opacity:1"
         id="path134"
         inkscape:connector-curvature="0" /><text
         style="font-variant:normal;font-weight:bold;font-size:10.66699219px;font-family:'DejaVu Sans';-inkscape-font-specification:DejaVuSans-Bold;writing-mode:lr-tb;fill:#000000;fill-opacity:1;fill-rule:nonzero;stroke:none"
         id="text138"
         x="61.685951"
         y="401.59091"><tspan
           x="61.685951 70.688889 77.68644 81.686562 90.668167 99.671104 103.67123 107.67135 115.67159 122.65848 130.64806 138.6483"
           y="401.59091"
           sodipodi:role="line"
           id="tspan136">QT GUI Range</tspan></text>
<text
         style="font-variant:normal;font-weight:bold;font-size:10px;font-family:'DejaVu Sans';-inkscape-font-specification:DejaVuSans-Bold;writing-mode:lr-tb;fill:#000000;fill-opacity:1;fill-rule:nonzero;stroke:none"
         id="text142"
         x="41.185951"
         y="417.59091"><tspan
           x="41.185951 45.185951 52.175949"
           y="417.59091"
           sodipodi:role="line"
           id="tspan140">Id:</tspan></text>
<text
         style="font-variant:normal;font-weight:normal;font-size:10px;font-family:'DejaVu Sans';-inkscape-font-specification:DejaVuSans;writing-mode:lr-tb;fill:#000000;fill-opacity:1;fill-rule:nonzero;stroke:none"
         id="text146"
         x="59.155952"
         y="417.59091"><tspan
           x="59.155952 64.14595 68.14595 74.135948 78.135948 81.135948 87.125954 93.115952 98.115952 102.11595 106.11595 112.11595"
           y="417.59091"
           sodipodi:role="line"
           id="tspan144">station_freq</tspan></text>
<text
         style="font-variant:normal;font-weight:bold;font-size:10px;font-family:'DejaVu Sans';-inkscape-font-specification:DejaVuSans-Bold;writing-mode:lr-tb;fill:#000000;fill-opacity:1;fill-rule:nonzero;stroke:none"
         id="text150"
         x="41.185951"
         y="433.59091"><tspan
           x="41.185951 47.185951 54.175949 61.165951 68.165947 71.155952"
           y="433.59091"
           sodipodi:role="line"
           id="tspan148">Label:</tspan></text>
<text
         style="font-variant:normal;font-weight:normal;font-size:10px;font-family:'DejaVu Sans';-inkscape-font-specification:DejaVuSans;writing-mode:lr-tb;fill:#000000;fill-opacity:1;fill-rule:nonzero;stroke:none"
         id="text154"
         x="78.135948"
         y="433.59091"><tspan
           x="78.135948 84.135948 88.135948 94.125954 98.125954 101.11595 107.10595 113.09595 116.08595 121.08595 125.08595 131.08595 137.07594 143.06595 149.06595 155.05595 160.04596"
           y="433.59091"
           sodipodi:role="line"
           id="tspan152">Station Frequency</tspan></text>
<text
         style="font-variant:normal;font-weight:bold;font-size:10px;font-family:'DejaVu Sans';-inkscape-font-specification:DejaVuSans-Bold;writing-mode:lr-tb;fill:#000000;fill-opacity:1;fill-rule:nonzero;stroke:none"
         id="text158"
         x="41.185951"
         y="449.59091"><tspan
           x="41.185951 49.185951 56.185951 60.185951 67.175949 74.165947 77.155952 82.155952 85.155952 92.14595 99.135948 102.12595 109.12595 116.11595"
           y="449.59091"
           sodipodi:role="line"
           id="tspan156">Default Value:</tspan></text>
<text
         style="font-variant:normal;font-weight:normal;font-size:10px;font-family:'DejaVu Sans';-inkscape-font-specification:DejaVuSans;writing-mode:lr-tb;fill:#000000;fill-opacity:1;fill-rule:nonzero;stroke:none"
         id="text162"
         x="123.10595"
         y="449.59091"><tspan
           x="123.10595 129.09595 135.09595 141.09595 144.08595"
           y="449.59091"
           sodipodi:role="line"
           id="tspan160">106.7</tspan></text>
<text
         style="font-variant:normal;font-weight:bold;font-size:10px;font-family:'DejaVu Sans';-inkscape-font-specification:DejaVuSans-Bold;writing-mode:lr-tb;fill:#000000;fill-opacity:1;fill-rule:nonzero;stroke:none"
         id="text166"
         x="41.185951"
         y="465.59091"><tspan
           x="41.185951 48.185951 53.185951 60.175949 65.175949 70.175949"
           y="465.59091"
           sodipodi:role="line"
           id="tspan164">Start:</tspan></text>
<text
         style="font-variant:normal;font-weight:normal;font-size:10px;font-family:'DejaVu Sans';-inkscape-font-specification:DejaVuSans;writing-mode:lr-tb;fill:#000000;fill-opacity:1;fill-rule:nonzero;stroke:none"
         id="text170"
         x="77.155952"
         y="465.59091"><tspan
           x="77.155952 83.155952"
           y="465.59091"
           sodipodi:role="line"
           id="tspan168">86</tspan></text>
<text
         style="font-variant:normal;font-weight:bold;font-size:10px;font-family:'DejaVu Sans';-inkscape-font-specification:DejaVuSans-Bold;writing-mode:lr-tb;fill:#000000;fill-opacity:1;fill-rule:nonzero;stroke:none"
         id="text174"
         x="41.185951"
         y="481.59091"><tspan
           x="41.185951 48.185951 53.185951 60.185951 67.175949"
           y="481.59091"
           sodipodi:role="line"
           id="tspan172">Stop:</tspan></text>
<text
         style="font-variant:normal;font-weight:normal;font-size:10px;font-family:'DejaVu Sans';-inkscape-font-specification:DejaVuSans;writing-mode:lr-tb;fill:#000000;fill-opacity:1;fill-rule:nonzero;stroke:none"
         id="text178"
         x="74.155952"
         y="481.59091"><tspan
           x="74.155952 80.155952 86.155952"
           y="481.59091"
           sodipodi:role="line"
           id="tspan176">108</tspan></text>
<text
         style="font-variant:normal;font-weight:bold;font-size:10px;font-family:'DejaVu Sans';-inkscape-font-specification:DejaVuSans-Bold;writing-mode:lr-tb;fill:#000000;fill-opacity:1;fill-rule:nonzero;stroke:none"
         id="text182"
         x="41.185951"
         y="497.59091"><tspan
           x="41.185951 48.185951 53.185951 60.185951 67.175949"
           y="497.59091"
           sodipodi:role="line"
           id="tspan180">Step:</tspan></text>
<text
         style="font-variant:normal;font-weight:normal;font-size:10px;font-family:'DejaVu Sans';-inkscape-font-specification:DejaVuSans;writing-mode:lr-tb;fill:#000000;fill-opacity:1;fill-rule:nonzero;stroke:none"
         id="text186"
         x="74.155952"
         y="497.59091"><tspan
           x="74.155952 80.155952 86.14595 92.14595"
           y="497.59091"
           sodipodi:role="line"
           id="tspan184">100m</tspan></text>
<path
         d="m 690,299.996 h 22 v 14.008 h -22 z"
         style="fill:#f57c00;fill-opacity:1;fill-rule:nonzero;stroke:none"
         id="path214"
         inkscape:connector-curvature="0" /><path
         d="m 690,299.996 h 22 v 14.008 h -22 z"
         style="fill:none;stroke:#a92f00;stroke-width:2;stroke-linecap:butt;stroke-linejoin:miter;stroke-miterlimit:10;stroke-dasharray:none;stroke-opacity:0.7"
         id="path216"
         inkscape:connector-curvature="0" /><text
         transform="translate(692,311.99609)"
         style="font-variant:normal;font-weight:normal;font-size:10.66699219px;font-family:'DejaVu Sans';-inkscape-font-specification:DejaVuSans;writing-mode:lr-tb;fill:#000000;fill-opacity:1;fill-rule:nonzero;stroke:none"
         id="text220"><tspan
           x="0 6.9868798 13.984426"
           y="0"
           sodipodi:role="line"
           id="tspan218">out</tspan></text>
<path
         d="m 548,299.996 h 14 v 14.008 h -14 z"
         style="fill:#2196f3;fill-opacity:1;fill-rule:nonzero;stroke:none"
         id="path222"
         inkscape:connector-curvature="0" /><path
         d="m 548,299.996 h 14 v 14.008 h -14 z"
         style="fill:none;stroke:#0049a7;stroke-width:2;stroke-linecap:butt;stroke-linejoin:miter;stroke-miterlimit:10;stroke-dasharray:none;stroke-opacity:0.7"
         id="path224"
         inkscape:connector-curvature="0" /><text
         transform="translate(550,311.99609)"
         style="font-variant:normal;font-weight:normal;font-size:10.66699219px;font-family:'DejaVu Sans';-inkscape-font-specification:DejaVuSans;writing-mode:lr-tb;fill:#000000;fill-opacity:1;fill-rule:nonzero;stroke:none"
         id="text228"><tspan
           x="0 2.9867578"
           y="0"
           sodipodi:role="line"
           id="tspan226">in</tspan></text>
<path
         d="M 562,239 H 690 V 375 H 562 Z"
         style="fill:#f1ecff;fill-opacity:1;fill-rule:nonzero;stroke:#616161;stroke-width:2;stroke-linecap:butt;stroke-linejoin:miter;stroke-miterlimit:10;stroke-dasharray:none;stroke-opacity:1"
         id="path230"
         inkscape:connector-curvature="0" /><text
         transform="translate(594,254.5)"
         style="font-variant:normal;font-weight:bold;font-size:10.66699219px;font-family:'DejaVu Sans';-inkscape-font-specification:DejaVuSans-Bold;writing-mode:lr-tb;fill:#000000;fill-opacity:1;fill-rule:nonzero;stroke:none"
         id="text234"><tspan
           x="0 6.9975467 17.995216 21.995338 30.99828 37.995827 48.982826 55.980373"
           y="0"
           sodipodi:role="line"
           id="tspan232">FM Demod</tspan></text>
<text
         transform="translate(570.5,270.5)"
         style="font-variant:normal;font-weight:bold;font-size:10px;font-family:'DejaVu Sans';-inkscape-font-specification:DejaVuSans-Bold;writing-mode:lr-tb;fill:#000000;fill-opacity:1;fill-rule:nonzero;stroke:none"
         id="text238"><tspan
           x="0 6.9899998 13.98 20.969999 27.959999 34.959999 41.950001 44.950001 47.939999 55.939999 62.939999 67.940002 74.93"
           y="0"
           sodipodi:role="line"
           id="tspan236">Channel Rate:</tspan></text>
<text
         transform="translate(652.42,270.5)"
         style="font-variant:normal;font-weight:normal;font-size:10px;font-family:'DejaVu Sans';-inkscape-font-specification:DejaVuSans;writing-mode:lr-tb;fill:#000000;fill-opacity:1;fill-rule:nonzero;stroke:none"
         id="text242"><tspan
           x="0 5.9899998 11.99 17.99"
           y="0"
           sodipodi:role="line"
           id="tspan240">352k</tspan></text>
<text
         transform="translate(570.5,286.5)"
         style="font-variant:normal;font-weight:bold;font-size:10px;font-family:'DejaVu Sans';-inkscape-font-specification:DejaVuSans-Bold;writing-mode:lr-tb;fill:#000000;fill-opacity:1;fill-rule:nonzero;stroke:none"
         id="text246"><tspan
           x="0 7.9899998 14.98 21.969999 24.969999 31.969999 34.959999 42.959999 49.959999 55.950001 58.950001 68.940002 75.93 80.93 83.919998 90.919998 97.910004"
           y="0"
           sodipodi:role="line"
           id="tspan244">Audio Decimation:</tspan></text>
<text
         transform="translate(675.39,286.5)"
         style="font-variant:normal;font-weight:normal;font-size:10px;font-family:'DejaVu Sans';-inkscape-font-specification:DejaVuSans;writing-mode:lr-tb;fill:#000000;fill-opacity:1;fill-rule:nonzero;stroke:none"
         id="text250"><tspan
           x="0"
           y="0"
           id="tspan248">8</tspan></text>
<text
         transform="translate(570.5,302.5)"
         style="font-variant:normal;font-weight:bold;font-size:10px;font-family:'DejaVu Sans';-inkscape-font-specification:DejaVuSans-Bold;writing-mode:lr-tb;fill:#000000;fill-opacity:1;fill-rule:nonzero;stroke:none"
         id="text254"><tspan
           x="0 8 15 21.99 24.98 31.969999 36.970001 39.959999 46.959999 53.959999"
           y="0"
           sodipodi:role="line"
           id="tspan252">Deviation:</tspan></text>
<text
         transform="translate(631.44,302.5)"
         style="font-variant:normal;font-weight:normal;font-size:10px;font-family:'DejaVu Sans';-inkscape-font-specification:DejaVuSans;writing-mode:lr-tb;fill:#000000;fill-opacity:1;fill-rule:nonzero;stroke:none"
         id="text258"><tspan
           x="0 6 11.99"
           y="0"
           sodipodi:role="line"
           id="tspan256">75k</tspan></text>
<text
         transform="translate(570.5,318.5)"
         style="font-variant:normal;font-weight:bold;font-size:10px;font-family:'DejaVu Sans';-inkscape-font-specification:DejaVuSans-Bold;writing-mode:lr-tb;fill:#000000;fill-opacity:1;fill-rule:nonzero;stroke:none"
         id="text262"><tspan
           x="0 7.9899998 14.98 21.969999 24.969999 31.969999 34.959999 41.950001 48.950001 54.939999 60.939999"
           y="0"
           sodipodi:role="line"
           id="tspan260">Audio Pass:</tspan></text>
<text
         transform="translate(638.42,318.5)"
         style="font-variant:normal;font-weight:normal;font-size:10px;font-family:'DejaVu Sans';-inkscape-font-specification:DejaVuSans;writing-mode:lr-tb;fill:#000000;fill-opacity:1;fill-rule:nonzero;stroke:none"
         id="text266"><tspan
           x="0 6 12"
           y="0"
           sodipodi:role="line"
           id="tspan264">13k</tspan></text>
<text
         transform="translate(570.5,334.5)"
         style="font-variant:normal;font-weight:bold;font-size:10px;font-family:'DejaVu Sans';-inkscape-font-specification:DejaVuSans-Bold;writing-mode:lr-tb;fill:#000000;fill-opacity:1;fill-rule:nonzero;stroke:none"
         id="text270"><tspan
           x="0 7.9899998 14.98 21.969999 24.969999 31.969999 34.959999 41.959999 46.959999 53.959999 60.950001"
           y="0"
           sodipodi:role="line"
           id="tspan268">Audio Stop:</tspan></text>
<text
         transform="translate(638.44,334.5)"
         style="font-variant:normal;font-weight:normal;font-size:10px;font-family:'DejaVu Sans';-inkscape-font-specification:DejaVuSans;writing-mode:lr-tb;fill:#000000;fill-opacity:1;fill-rule:nonzero;stroke:none"
         id="text274"><tspan
           x="0 5.9899998 11.99"
           y="0"
           sodipodi:role="line"
           id="tspan272">15k</tspan></text>
<text
         transform="translate(570.5,350.5)"
         style="font-variant:normal;font-weight:bold;font-size:10px;font-family:'DejaVu Sans';-inkscape-font-specification:DejaVuSans-Bold;writing-mode:lr-tb;fill:#000000;fill-opacity:1;fill-rule:nonzero;stroke:none"
         id="text278"><tspan
           x="0 7.9899998 14.98 17.98 24.969999"
           y="0"
           sodipodi:role="line"
           id="tspan276">Gain:</tspan></text>
<text
         transform="translate(602.45,350.5)"
         style="font-variant:normal;font-weight:normal;font-size:10px;font-family:'DejaVu Sans';-inkscape-font-specification:DejaVuSans;writing-mode:lr-tb;fill:#000000;fill-opacity:1;fill-rule:nonzero;stroke:none"
         id="text282"><tspan
           x="0"
           y="0"
           id="tspan280">1</tspan></text>
<text
         transform="translate(570.5,366.5)"
         style="font-variant:normal;font-weight:bold;font-size:10px;font-family:'DejaVu Sans';-inkscape-font-specification:DejaVuSans-Bold;writing-mode:lr-tb;fill:#000000;fill-opacity:1;fill-rule:nonzero;stroke:none"
         id="text286"><tspan
           x="0 6 12.99 19.98"
           y="0"
           sodipodi:role="line"
           id="tspan284">Tau:</tspan></text>
<text
         transform="translate(597.46,366.5)"
         style="font-variant:normal;font-weight:normal;font-size:10px;font-family:'DejaVu Sans';-inkscape-font-specification:DejaVuSans;writing-mode:lr-tb;fill:#000000;fill-opacity:1;fill-rule:nonzero;stroke:none"
         id="text290"><tspan
           x="0 6 12"
           y="0"
           sodipodi:role="line"
           id="tspan288">75u</tspan></text>
<path
         d="m 997,299.996 h 14 v 14.008 h -14 z"
         style="fill:#f57c00;fill-opacity:1;fill-rule:nonzero;stroke:none"
         id="path292"
         inkscape:connector-curvature="0" /><path
         d="m 997,299.996 h 14 v 14.008 h -14 z"
         style="fill:none;stroke:#a92f00;stroke-width:2;stroke-linecap:butt;stroke-linejoin:miter;stroke-miterlimit:10;stroke-dasharray:none;stroke-opacity:0.7"
         id="path294"
         inkscape:connector-curvature="0" /><text
         transform="translate(999,311.99609)"
         style="font-variant:normal;font-weight:normal;font-size:10.66699219px;font-family:'DejaVu Sans';-inkscape-font-specification:DejaVuSans;writing-mode:lr-tb;fill:#000000;fill-opacity:1;fill-rule:nonzero;stroke:none"
         id="text298"><tspan
           x="0 2.9867578"
           y="0"
           sodipodi:role="line"
           id="tspan296">in</tspan></text>
<path
         d="m 1011,287 h 136 v 40 h -136 z"
         style="fill:#f1ecff;fill-opacity:1;fill-rule:nonzero;stroke:#616161;stroke-width:2;stroke-linecap:butt;stroke-linejoin:miter;stroke-miterlimit:10;stroke-dasharray:none;stroke-opacity:1"
         id="path300"
         inkscape:connector-curvature="0" /><text
         transform="translate(1046,302.5)"
         style="font-variant:normal;font-weight:bold;font-size:10.66699219px;font-family:'DejaVu Sans';-inkscape-font-specification:DejaVuSans-Bold;writing-mode:lr-tb;fill:#000000;fill-opacity:1;fill-rule:nonzero;stroke:none"
         id="text304"><tspan
           x="0 7.9895768 15.979154 23.968731 27.958185 34.9664 38.966522 46.9561 50.956223 58.945797"
           y="0"
           sodipodi:role="line"
           id="tspan302">Audio Sink</tspan></text>
<text
         transform="translate(1018.5,318.5)"
         style="font-variant:normal;font-weight:bold;font-size:10px;font-family:'DejaVu Sans';-inkscape-font-specification:DejaVuSans-Bold;writing-mode:lr-tb;fill:#000000;fill-opacity:1;fill-rule:nonzero;stroke:none"
         id="text308"><tspan
           x="0 7 13.99 23.98 30.969999 33.959999 40.959999 43.959999 51.959999 58.950001 63.950001 70.949997"
           y="0"
           sodipodi:role="line"
           id="tspan306">Sample Rate:</tspan></text>
<text
         transform="translate(1096.43,318.5)"
         style="font-variant:normal;font-weight:normal;font-size:10px;font-family:'DejaVu Sans';-inkscape-font-specification:DejaVuSans;writing-mode:lr-tb;fill:#000000;fill-opacity:1;fill-rule:nonzero;stroke:none"
         id="text312"><tspan
           x="0 6 12 14.99 20.99 23.98 29.98 37.970001"
           y="0"
           sodipodi:role="line"
           id="tspan310">44.1 kHz</tspan></text>
<path
         d="m 177,299.996 h 22 v 14.008 h -22 z"
         style="fill:#2196f3;fill-opacity:1;fill-rule:nonzero;stroke:none"
         id="path314"
         inkscape:connector-curvature="0" /><path
         d="m 177,299.996 h 22 v 14.008 h -22 z"
         style="fill:none;stroke:#0049a7;stroke-width:2;stroke-linecap:butt;stroke-linejoin:miter;stroke-miterlimit:10;stroke-dasharray:none;stroke-opacity:0.7"
         id="path316"
         inkscape:connector-curvature="0" /><text
         transform="translate(179,311.99609)"
         style="font-variant:normal;font-weight:normal;font-size:10.66699219px;font-family:'DejaVu Sans';-inkscape-font-specification:DejaVuSans;writing-mode:lr-tb;fill:#000000;fill-opacity:1;fill-rule:nonzero;stroke:none"
         id="text320"><tspan
           x="0 6.9868798 13.984426"
           y="0"
           sodipodi:role="line"
           id="tspan318">out</tspan></text>
<path
         d="m 33,271 h 144 v 72 H 33 Z"
         style="fill:#f1ecff;fill-opacity:1;fill-rule:nonzero;stroke:#616161;stroke-width:2;stroke-linecap:butt;stroke-linejoin:miter;stroke-miterlimit:10;stroke-dasharray:none;stroke-opacity:1"
         id="path322"
         inkscape:connector-curvature="0" /><text
         transform="translate(41,286.5)"
         style="font-variant:normal;font-weight:bold;font-size:10.66699219px;font-family:'DejaVu Sans';-inkscape-font-specification:DejaVuSans-Bold;writing-mode:lr-tb;fill:#000000;fill-opacity:1;fill-rule:nonzero;stroke:none"
         id="text326"><tspan
           x="0 6.9975467 10.987001 21.974003 28.97155 36.971794 45.974735 53.974979 57.975101 65.964676 72.972893 80.962471 85.95462 91.949471 98.947021 102.94714 107.94996 115.9502 123.93978"
           y="0"
           sodipodi:role="line"
           id="tspan324">LimeSDR Source (RX)</tspan></text>
<text
         transform="translate(40.5,302.5)"
         style="font-variant:normal;font-weight:bold;font-size:10px;font-family:'DejaVu Sans';-inkscape-font-specification:DejaVuSans-Bold;writing-mode:lr-tb;fill:#000000;fill-opacity:1;fill-rule:nonzero;stroke:none"
         id="text330"><tspan
           x="0 8 15 18 22 27 33.990002 40.98 47.98 54.970001 61.959999 67.959999 74.949997"
           y="0"
           sodipodi:role="line"
           id="tspan328">RF frequency:</tspan></text>
<text
         transform="translate(122.43,302.5)"
         style="font-variant:normal;font-weight:normal;font-size:10px;font-family:'DejaVu Sans';-inkscape-font-specification:DejaVuSans;writing-mode:lr-tb;fill:#000000;fill-opacity:1;fill-rule:nonzero;stroke:none"
         id="text334"><tspan
           x="0 6 12 17.99 20.98 26.98"
           y="0"
           sodipodi:role="line"
           id="tspan332">106.7M</tspan></text>
<text
         transform="translate(40.5,318.5)"
         style="font-variant:normal;font-weight:bold;font-size:10px;font-family:'DejaVu Sans';-inkscape-font-specification:DejaVuSans-Bold;writing-mode:lr-tb;fill:#000000;fill-opacity:1;fill-rule:nonzero;stroke:none"
         id="text338"><tspan
           x="0 7 13.99 23.98 30.969999 33.959999 40.959999 43.959999 48.959999 55.950001 60.950001 67.949997"
           y="0"
           sodipodi:role="line"
           id="tspan336">Sample rate:</tspan></text>
<text
         transform="translate(115.43,318.5)"
         style="font-variant:normal;font-weight:normal;font-size:10px;font-family:'DejaVu Sans';-inkscape-font-specification:DejaVuSans;writing-mode:lr-tb;fill:#000000;fill-opacity:1;fill-rule:nonzero;stroke:none"
         id="text342"><tspan
           x="0 6 8.9899998 14.99 20.98 26.98"
           y="0"
           sodipodi:role="line"
           id="tspan340">1.764M</tspan></text>
<text
         transform="translate(40.5,334.5)"
         style="font-variant:normal;font-weight:bold;font-size:10px;font-family:'DejaVu Sans';-inkscape-font-specification:DejaVuSans-Bold;writing-mode:lr-tb;fill:#000000;fill-opacity:1;fill-rule:nonzero;stroke:none"
         id="text346"><tspan
           x="0 9 15.99 22.99 27.99 33.98 40.98 50.970001 57.959999 60.950001 67.949997"
           y="0"
           sodipodi:role="line"
           id="tspan344">Oversample:</tspan></text>
<text
         transform="translate(115.43,334.5)"
         style="font-variant:normal;font-weight:normal;font-size:10px;font-family:'DejaVu Sans';-inkscape-font-specification:DejaVuSans;writing-mode:lr-tb;fill:#000000;fill-opacity:1;fill-rule:nonzero;stroke:none"
         id="text350"><tspan
           x="0 8 14 18 23.99 29.98 32.970001"
           y="0"
           sodipodi:role="line"
           id="tspan348">Default</tspan></text>
<path
         d="m 494,408.996 h 26 v 14.008 h -26 z"
         style="fill:#bdbdbd;fill-opacity:1;fill-rule:nonzero;stroke:none"
         id="path352"
         inkscape:connector-curvature="0" /><path
         d="m 494,408.996 h 26 v 14.008 h -26 z"
         style="fill:none;stroke:#707070;stroke-width:2;stroke-linecap:butt;stroke-linejoin:miter;stroke-miterlimit:10;stroke-dasharray:none;stroke-opacity:0.7"
         id="path354"
         inkscape:connector-curvature="0" /><text
         transform="translate(496,420.99609)"
         style="font-variant:normal;font-weight:normal;font-size:10.66699219px;font-family:'DejaVu Sans';-inkscape-font-specification:DejaVuSans;writing-mode:lr-tb;fill:#000000;fill-opacity:1;fill-rule:nonzero;stroke:none"
         id="text358"><tspan
           x="0 4.0001221 8.0002441 14.99779"
           y="0"
           sodipodi:role="line"
           id="tspan356">freq</tspan></text>
<path
         d="m 284,376.996 h 26 v 14.008 h -26 z"
         style="fill:#2196f3;fill-opacity:1;fill-rule:nonzero;stroke:none"
         id="path360"
         inkscape:connector-curvature="0" /><path
         d="m 284,376.996 h 26 v 14.008 h -26 z"
         style="fill:none;stroke:#0049a7;stroke-width:2;stroke-linecap:butt;stroke-linejoin:miter;stroke-miterlimit:10;stroke-dasharray:none;stroke-opacity:0.7"
         id="path362"
         inkscape:connector-curvature="0" /><text
         transform="translate(292,388.99609)"
         style="font-variant:normal;font-weight:normal;font-size:10.66699219px;font-family:'DejaVu Sans';-inkscape-font-specification:DejaVuSans;writing-mode:lr-tb;fill:#000000;fill-opacity:1;fill-rule:nonzero;stroke:none"
         id="text366"><tspan
           x="0 2.9867578"
           y="0"
           sodipodi:role="line"
           id="tspan364">in</tspan></text>
<path
         d="m 284,408.996 h 26 v 14.008 h -26 z"
         style="fill:#bdbdbd;fill-opacity:1;fill-rule:nonzero;stroke:none"
         id="path368"
         inkscape:connector-curvature="0" /><path
         d="m 284,408.996 h 26 v 14.008 h -26 z"
         style="fill:none;stroke:#707070;stroke-width:2;stroke-linecap:butt;stroke-linejoin:miter;stroke-miterlimit:10;stroke-dasharray:none;stroke-opacity:0.7"
         id="path370"
         inkscape:connector-curvature="0" /><text
         transform="translate(286,420.99609)"
         style="font-variant:normal;font-weight:normal;font-size:10.66699219px;font-family:'DejaVu Sans';-inkscape-font-specification:DejaVuSans;writing-mode:lr-tb;fill:#000000;fill-opacity:1;fill-rule:nonzero;stroke:none"
         id="text374"><tspan
           x="0 4.0001221 8.0002441 14.99779"
           y="0"
           sodipodi:role="line"
           id="tspan372">freq</tspan></text>
<path
         d="m 284,440.996 h 26 v 14.008 h -26 z"
         style="fill:#bdbdbd;fill-opacity:1;fill-rule:nonzero;stroke:none"
         id="path376"
         inkscape:connector-curvature="0" /><path
         d="m 284,440.996 h 26 v 14.008 h -26 z"
         style="fill:none;stroke:#707070;stroke-width:2;stroke-linecap:butt;stroke-linejoin:miter;stroke-miterlimit:10;stroke-dasharray:none;stroke-opacity:0.7"
         id="path378"
         inkscape:connector-curvature="0" /><text
         transform="translate(289,452.99609)"
         style="font-variant:normal;font-weight:normal;font-size:10.66699219px;font-family:'DejaVu Sans';-inkscape-font-specification:DejaVuSans;writing-mode:lr-tb;fill:#000000;fill-opacity:1;fill-rule:nonzero;stroke:none"
         id="text382"><tspan
           x="0 6.9868798"
           y="0"
           sodipodi:role="line"
           id="tspan380">bw</tspan></text>
<path
         d="m 310,368 h 184 v 96 H 310 Z"
         style="fill:#f1ecff;fill-opacity:1;fill-rule:nonzero;stroke:#616161;stroke-width:2;stroke-linecap:butt;stroke-linejoin:miter;stroke-miterlimit:10;stroke-dasharray:none;stroke-opacity:1"
         id="path384"
         inkscape:connector-curvature="0" /><text
         transform="translate(332,387.5)"
         style="font-variant:normal;font-weight:bold;font-size:10.66699219px;font-family:'DejaVu Sans';-inkscape-font-specification:DejaVuSans-Bold;writing-mode:lr-tb;fill:#000000;fill-opacity:1;fill-rule:nonzero;stroke:none"
         id="text388"><tspan
           x="0 9.0029411 16.000488 20.00061 28.982218 37.985157 41.985279 45.985401 52.982948 57.985767 64.983315 72.972893 80.962471 87.960014 95.949593 101.94444 108.93132 112.93144 120.93169 124.92114 132.91072"
           y="0"
           sodipodi:role="line"
           id="tspan386">QT GUI Frequency Sink</tspan></text>
<text
         transform="translate(317,403.5)"
         style="font-variant:normal;font-weight:bold;font-size:10px;font-family:'DejaVu Sans';-inkscape-font-specification:DejaVuSans-Bold;writing-mode:lr-tb;fill:#000000;fill-opacity:1;fill-rule:nonzero;stroke:none"
         id="text392"><tspan
           x="0 7.9899998 14.98 24.969999 31.969999"
           y="0"
           sodipodi:role="line"
           id="tspan390">Name:</tspan></text>
<text
         transform="translate(355.95,403.5)"
         style="font-variant:normal;font-weight:normal;font-size:10px;font-family:'DejaVu Sans';-inkscape-font-specification:DejaVuSans;writing-mode:lr-tb;fill:#000000;fill-opacity:1;fill-rule:nonzero;stroke:none"
         id="text396"><tspan
           x="0 6 14.99 17.98 23.98 29.969999 35.970001 40.959999 44.959999 48.959999 54.950001"
           y="0"
           sodipodi:role="line"
           id="tspan394">FM Spectrum</tspan></text>
<text
         transform="translate(317,419.5)"
         style="font-variant:normal;font-weight:bold;font-size:10px;font-family:'DejaVu Sans';-inkscape-font-specification:DejaVuSans-Bold;writing-mode:lr-tb;fill:#000000;fill-opacity:1;fill-rule:nonzero;stroke:none"
         id="text400"><tspan
           x="0 7 14 21 24 30.99 33.990002 39.98 46.98"
           y="0"
           sodipodi:role="line"
           id="tspan398">FFT Size:</tspan></text>
<text
         transform="translate(370.96,419.5)"
         style="font-variant:normal;font-weight:normal;font-size:10px;font-family:'DejaVu Sans';-inkscape-font-specification:DejaVuSans;writing-mode:lr-tb;fill:#000000;fill-opacity:1;fill-rule:nonzero;stroke:none"
         id="text404"><tspan
           x="0 6 8.9899998 14.99 20.99 26.99"
           y="0"
           sodipodi:role="line"
           id="tspan402">1.024k</tspan></text>
<text
         transform="translate(317,435.5)"
         style="font-variant:normal;font-weight:bold;font-size:10px;font-family:'DejaVu Sans';-inkscape-font-specification:DejaVuSans-Bold;writing-mode:lr-tb;fill:#000000;fill-opacity:1;fill-rule:nonzero;stroke:none"
         id="text408"><tspan
           x="0 6.9899998 13.99 20.98 25.98 32.98 37.98 40.970001 46.970001 51.970001 58.970001 65.959999 72.949997 79.949997 86.940002 92.93 99.919998 102.92 107.92 115.91 121.91 126.91"
           y="0"
           sodipodi:role="line"
           id="tspan406">Center Frequency (Hz):</tspan></text>
<text
         transform="translate(450.9,435.5)"
         style="font-variant:normal;font-weight:normal;font-size:10px;font-family:'DejaVu Sans';-inkscape-font-specification:DejaVuSans;writing-mode:lr-tb;fill:#000000;fill-opacity:1;fill-rule:nonzero;stroke:none"
         id="text412"><tspan
           x="0 5.9899998 11.99 17.99 20.98 26.98"
           y="0"
           sodipodi:role="line"
           id="tspan410">106.7M</tspan></text>
<text
         transform="translate(317,451.5)"
         style="font-variant:normal;font-weight:bold;font-size:10px;font-family:'DejaVu Sans';-inkscape-font-specification:DejaVuSans-Bold;writing-mode:lr-tb;fill:#000000;fill-opacity:1;fill-rule:nonzero;stroke:none"
         id="text416"><tspan
           x="0 8 14.99 21.98 28.969999 37.959999 40.959999 47.950001 52.950001 59.939999 62.939999 67.940002 75.93 81.93 86.93"
           y="0"
           sodipodi:role="line"
           id="tspan414">Bandwidth (Hz):</tspan></text>
<text
         transform="translate(410.91,451.5)"
         style="font-variant:normal;font-weight:normal;font-size:10px;font-family:'DejaVu Sans';-inkscape-font-specification:DejaVuSans;writing-mode:lr-tb;fill:#000000;fill-opacity:1;fill-rule:nonzero;stroke:none"
         id="text420"><tspan
           x="0 6 8.9899998 14.99 20.98 26.98"
           y="0"
           sodipodi:role="line"
           id="tspan418">1.764M</tspan></text>
<path
         d="m 976,394.996 h 26 v 14.008 h -26 z"
         style="fill:#bdbdbd;fill-opacity:1;fill-rule:nonzero;stroke:none"
         id="path422"
         inkscape:connector-curvature="0" /><path
         d="m 976,394.996 h 26 v 14.008 h -26 z"
         style="fill:none;stroke:#707070;stroke-width:2;stroke-linecap:butt;stroke-linejoin:miter;stroke-miterlimit:10;stroke-dasharray:none;stroke-opacity:0.7"
         id="path424"
         inkscape:connector-curvature="0" /><text
         transform="translate(978,406.99609)"
         style="font-variant:normal;font-weight:normal;font-size:10.66699219px;font-family:'DejaVu Sans';-inkscape-font-specification:DejaVuSans;writing-mode:lr-tb;fill:#000000;fill-opacity:1;fill-rule:nonzero;stroke:none"
         id="text428"><tspan
           x="0 4.0001221 8.0002441 14.99779"
           y="0"
           sodipodi:role="line"
           id="tspan426">freq</tspan></text>
<path
         d="m 798,362.996 h 26 v 14.008 h -26 z"
         style="fill:#f57c00;fill-opacity:1;fill-rule:nonzero;stroke:none"
         id="path430"
         inkscape:connector-curvature="0" /><path
         d="m 798,362.996 h 26 v 14.008 h -26 z"
         style="fill:none;stroke:#a92f00;stroke-width:2;stroke-linecap:butt;stroke-linejoin:miter;stroke-miterlimit:10;stroke-dasharray:none;stroke-opacity:0.7"
         id="path432"
         inkscape:connector-curvature="0" /><text
         transform="translate(806,374.99609)"
         style="font-variant:normal;font-weight:normal;font-size:10.66699219px;font-family:'DejaVu Sans';-inkscape-font-specification:DejaVuSans;writing-mode:lr-tb;fill:#000000;fill-opacity:1;fill-rule:nonzero;stroke:none"
         id="text436"><tspan
           x="0 2.9867578"
           y="0"
           sodipodi:role="line"
           id="tspan434">in</tspan></text>
<path
         d="m 798,394.996 h 26 v 14.008 h -26 z"
         style="fill:#bdbdbd;fill-opacity:1;fill-rule:nonzero;stroke:none"
         id="path438"
         inkscape:connector-curvature="0" /><path
         d="m 798,394.996 h 26 v 14.008 h -26 z"
         style="fill:none;stroke:#707070;stroke-width:2;stroke-linecap:butt;stroke-linejoin:miter;stroke-miterlimit:10;stroke-dasharray:none;stroke-opacity:0.7"
         id="path440"
         inkscape:connector-curvature="0" /><text
         transform="translate(800,406.99609)"
         style="font-variant:normal;font-weight:normal;font-size:10.66699219px;font-family:'DejaVu Sans';-inkscape-font-specification:DejaVuSans;writing-mode:lr-tb;fill:#000000;fill-opacity:1;fill-rule:nonzero;stroke:none"
         id="text444"><tspan
           x="0 4.0001221 8.0002441 14.99779"
           y="0"
           sodipodi:role="line"
           id="tspan442">freq</tspan></text>
<path
         d="m 798,426.996 h 26 v 14.008 h -26 z"
         style="fill:#bdbdbd;fill-opacity:1;fill-rule:nonzero;stroke:none"
         id="path446"
         inkscape:connector-curvature="0" /><path
         d="m 798,426.996 h 26 v 14.008 h -26 z"
         style="fill:none;stroke:#707070;stroke-width:2;stroke-linecap:butt;stroke-linejoin:miter;stroke-miterlimit:10;stroke-dasharray:none;stroke-opacity:0.7"
         id="path448"
         inkscape:connector-curvature="0" /><text
         transform="translate(803,438.99609)"
         style="font-variant:normal;font-weight:normal;font-size:10.66699219px;font-family:'DejaVu Sans';-inkscape-font-specification:DejaVuSans;writing-mode:lr-tb;fill:#000000;fill-opacity:1;fill-rule:nonzero;stroke:none"
         id="text452"><tspan
           x="0 6.9868798"
           y="0"
           sodipodi:role="line"
           id="tspan450">bw</tspan></text>
<path
         d="m 824,354 h 152 v 96 H 824 Z"
         style="fill:#f1ecff;fill-opacity:1;fill-rule:nonzero;stroke:#616161;stroke-width:2;stroke-linecap:butt;stroke-linejoin:miter;stroke-miterlimit:10;stroke-dasharray:none;stroke-opacity:1"
         id="path454"
         inkscape:connector-curvature="0" /><text
         transform="translate(830,373.5)"
         style="font-variant:normal;font-weight:bold;font-size:10.66699219px;font-family:'DejaVu Sans';-inkscape-font-specification:DejaVuSans-Bold;writing-mode:lr-tb;fill:#000000;fill-opacity:1;fill-rule:nonzero;stroke:none"
         id="text458"><tspan
           x="0 9.0029411 16.000488 20.00061 28.982218 37.985157 41.985279 45.985401 52.982948 57.985767 64.983315 72.972893 80.962471 87.960014 95.949593 101.94444 108.93132 112.93144 120.93169 124.92114 132.91072"
           y="0"
           sodipodi:role="line"
           id="tspan456">QT GUI Frequency Sink</tspan></text>
<text
         transform="translate(830,389.5)"
         style="font-variant:normal;font-weight:bold;font-size:10px;font-family:'DejaVu Sans';-inkscape-font-specification:DejaVuSans-Bold;writing-mode:lr-tb;fill:#000000;fill-opacity:1;fill-rule:nonzero;stroke:none"
         id="text462"><tspan
           x="0 7.9899998 14.98 24.969999 31.969999"
           y="0"
           sodipodi:role="line"
           id="tspan460">Name:</tspan></text>
<text
         transform="translate(868.95,389.5)"
         style="font-variant:normal;font-weight:normal;font-size:10px;font-family:'DejaVu Sans';-inkscape-font-specification:DejaVuSans;writing-mode:lr-tb;fill:#000000;fill-opacity:1;fill-rule:nonzero;stroke:none"
         id="text466"><tspan
           x="0 8 14 24 29.99 35.98 41.98 44.970001 50.959999 54.959999 60.959999"
           y="0"
           sodipodi:role="line"
           id="tspan464">Demodulated</tspan></text>
<text
         transform="translate(830,405.5)"
         style="font-variant:normal;font-weight:bold;font-size:10px;font-family:'DejaVu Sans';-inkscape-font-specification:DejaVuSans-Bold;writing-mode:lr-tb;fill:#000000;fill-opacity:1;fill-rule:nonzero;stroke:none"
         id="text470"><tspan
           x="0 7 14 21 24 30.99 33.990002 39.98 46.98"
           y="0"
           sodipodi:role="line"
           id="tspan468">FFT Size:</tspan></text>
<text
         transform="translate(883.97,405.5)"
         style="font-variant:normal;font-weight:normal;font-size:10px;font-family:'DejaVu Sans';-inkscape-font-specification:DejaVuSans;writing-mode:lr-tb;fill:#000000;fill-opacity:1;fill-rule:nonzero;stroke:none"
         id="text474"><tspan
           x="0 5.9899998 11.99"
           y="0"
           sodipodi:role="line"
           id="tspan472">512</tspan></text>
<text
         transform="translate(830,421.5)"
         style="font-variant:normal;font-weight:bold;font-size:10px;font-family:'DejaVu Sans';-inkscape-font-specification:DejaVuSans-Bold;writing-mode:lr-tb;fill:#000000;fill-opacity:1;fill-rule:nonzero;stroke:none"
         id="text478"><tspan
           x="0 6.9899998 13.99 20.98 25.98 32.98 37.98 40.970001 46.970001 51.970001 58.970001 65.959999 72.949997 79.949997 86.940002 92.93 99.919998 102.92 107.92 115.91 121.91 126.91"
           y="0"
           sodipodi:role="line"
           id="tspan476">Center Frequency (Hz):</tspan></text>
<text
         transform="translate(963.9,421.5)"
         style="font-variant:normal;font-weight:normal;font-size:10px;font-family:'DejaVu Sans';-inkscape-font-specification:DejaVuSans;writing-mode:lr-tb;fill:#000000;fill-opacity:1;fill-rule:nonzero;stroke:none"
         id="text482"><tspan
           x="0"
           y="0"
           id="tspan480">0</tspan></text>
<text
         transform="translate(830,437.5)"
         style="font-variant:normal;font-weight:bold;font-size:10px;font-family:'DejaVu Sans';-inkscape-font-specification:DejaVuSans-Bold;writing-mode:lr-tb;fill:#000000;fill-opacity:1;fill-rule:nonzero;stroke:none"
         id="text486"><tspan
           x="0 8 14.99 21.98 28.969999 37.959999 40.959999 47.950001 52.950001 59.939999 62.939999 67.940002 75.93 81.93 86.93"
           y="0"
           sodipodi:role="line"
           id="tspan484">Bandwidth (Hz):</tspan></text>
<text
         transform="translate(923.91,437.5)"
         style="font-variant:normal;font-weight:normal;font-size:10px;font-family:'DejaVu Sans';-inkscape-font-specification:DejaVuSans;writing-mode:lr-tb;fill:#000000;fill-opacity:1;fill-rule:nonzero;stroke:none"
         id="text490"><tspan
           x="0 6 12 14.99 20.98"
           y="0"
           sodipodi:role="line"
           id="tspan488">44.1k</tspan></text>
<path
         d="m 496,516.996 h 26 v 14.008 h -26 z"
         style="fill:#bdbdbd;fill-opacity:1;fill-rule:nonzero;stroke:none"
         id="path492"
         inkscape:connector-curvature="0" /><path
         d="m 496,516.996 h 26 v 14.008 h -26 z"
         style="fill:none;stroke:#707070;stroke-width:2;stroke-linecap:butt;stroke-linejoin:miter;stroke-miterlimit:10;stroke-dasharray:none;stroke-opacity:0.7"
         id="path494"
         inkscape:connector-curvature="0" /><text
         transform="translate(498,528.99609)"
         style="font-variant:normal;font-weight:normal;font-size:10.66699219px;font-family:'DejaVu Sans';-inkscape-font-specification:DejaVuSans;writing-mode:lr-tb;fill:#000000;fill-opacity:1;fill-rule:nonzero;stroke:none"
         id="text498"><tspan
           x="0 4.0001221 8.0002441 14.99779"
           y="0"
           sodipodi:role="line"
           id="tspan496">freq</tspan></text>
<path
         d="m 286,484.996 h 26 v 14.008 h -26 z"
         style="fill:#2196f3;fill-opacity:1;fill-rule:nonzero;stroke:none"
         id="path500"
         inkscape:connector-curvature="0" /><path
         d="m 286,484.996 h 26 v 14.008 h -26 z"
         style="fill:none;stroke:#0049a7;stroke-width:2;stroke-linecap:butt;stroke-linejoin:miter;stroke-miterlimit:10;stroke-dasharray:none;stroke-opacity:0.7"
         id="path502"
         inkscape:connector-curvature="0" /><text
         transform="translate(294,496.99609)"
         style="font-variant:normal;font-weight:normal;font-size:10.66699219px;font-family:'DejaVu Sans';-inkscape-font-specification:DejaVuSans;writing-mode:lr-tb;fill:#000000;fill-opacity:1;fill-rule:nonzero;stroke:none"
         id="text506"><tspan
           x="0 2.9867578"
           y="0"
           sodipodi:role="line"
           id="tspan504">in</tspan></text>
<path
         d="m 286,516.996 h 26 v 14.008 h -26 z"
         style="fill:#bdbdbd;fill-opacity:1;fill-rule:nonzero;stroke:none"
         id="path508"
         inkscape:connector-curvature="0" /><path
         d="m 286,516.996 h 26 v 14.008 h -26 z"
         style="fill:none;stroke:#707070;stroke-width:2;stroke-linecap:butt;stroke-linejoin:miter;stroke-miterlimit:10;stroke-dasharray:none;stroke-opacity:0.7"
         id="path510"
         inkscape:connector-curvature="0" /><text
         transform="translate(288,528.99609)"
         style="font-variant:normal;font-weight:normal;font-size:10.66699219px;font-family:'DejaVu Sans';-inkscape-font-specification:DejaVuSans;writing-mode:lr-tb;fill:#000000;fill-opacity:1;fill-rule:nonzero;stroke:none"
         id="text514"><tspan
           x="0 4.0001221 8.0002441 14.99779"
           y="0"
           sodipodi:role="line"
           id="tspan512">freq</tspan></text>
<path
         d="m 286,548.996 h 26 v 14.008 h -26 z"
         style="fill:#bdbdbd;fill-opacity:1;fill-rule:nonzero;stroke:none"
         id="path516"
         inkscape:connector-curvature="0" /><path
         d="m 286,548.996 h 26 v 14.008 h -26 z"
         style="fill:none;stroke:#707070;stroke-width:2;stroke-linecap:butt;stroke-linejoin:miter;stroke-miterlimit:10;stroke-dasharray:none;stroke-opacity:0.7"
         id="path518"
         inkscape:connector-curvature="0" /><text
         transform="translate(291,560.99609)"
         style="font-variant:normal;font-weight:normal;font-size:10.66699219px;font-family:'DejaVu Sans';-inkscape-font-specification:DejaVuSans;writing-mode:lr-tb;fill:#000000;fill-opacity:1;fill-rule:nonzero;stroke:none"
         id="text522"><tspan
           x="0 6.9868798"
           y="0"
           sodipodi:role="line"
           id="tspan520">bw</tspan></text>
<path
         d="m 312,476 h 184 v 96 H 312 Z"
         style="fill:#f1ecff;fill-opacity:1;fill-rule:nonzero;stroke:#616161;stroke-width:2;stroke-linecap:butt;stroke-linejoin:miter;stroke-miterlimit:10;stroke-dasharray:none;stroke-opacity:1"
         id="path524"
         inkscape:connector-curvature="0" /><text
         transform="translate(338,495.5)"
         style="font-variant:normal;font-weight:bold;font-size:10.66699219px;font-family:'DejaVu Sans';-inkscape-font-specification:DejaVuSans-Bold;writing-mode:lr-tb;fill:#000000;fill-opacity:1;fill-rule:nonzero;stroke:none"
         id="text528"><tspan
           x="0 9.0029411 16.000488 20.00061 28.982218 37.985157 41.985279 45.985401 56.98307 63.980618 68.972771 75.970314 80.973137 85.975952 92.962837 96.952293 100.94174 104.94186 112.94211 116.93156 124.92114"
           y="0"
           sodipodi:role="line"
           id="tspan526">QT GUI Waterfall Sink</tspan></text>
<text
         transform="translate(319,511.5)"
         style="font-variant:normal;font-weight:bold;font-size:10px;font-family:'DejaVu Sans';-inkscape-font-specification:DejaVuSans-Bold;writing-mode:lr-tb;fill:#000000;fill-opacity:1;fill-rule:nonzero;stroke:none"
         id="text532"><tspan
           x="0 7.9899998 14.98 24.969999 31.969999"
           y="0"
           sodipodi:role="line"
           id="tspan530">Name:</tspan></text>
<text
         transform="translate(357.95,511.5)"
         style="font-variant:normal;font-weight:normal;font-size:10px;font-family:'DejaVu Sans';-inkscape-font-specification:DejaVuSans;writing-mode:lr-tb;fill:#000000;fill-opacity:1;fill-rule:nonzero;stroke:none"
         id="text536"><tspan
           x="0 6 14.99 17.98 26.98 32.970001 36.970001 42.970001 46.959999 50.959999 56.959999 59.950001"
           y="0"
           sodipodi:role="line"
           id="tspan534">FM Waterfall</tspan></text>
<text
         transform="translate(319,527.5)"
         style="font-variant:normal;font-weight:bold;font-size:10px;font-family:'DejaVu Sans';-inkscape-font-specification:DejaVuSans-Bold;writing-mode:lr-tb;fill:#000000;fill-opacity:1;fill-rule:nonzero;stroke:none"
         id="text540"><tspan
           x="0 7 14 21 24 30.99 33.990002 39.98 46.98"
           y="0"
           sodipodi:role="line"
           id="tspan538">FFT Size:</tspan></text>
<text
         transform="translate(372.97,527.5)"
         style="font-variant:normal;font-weight:normal;font-size:10px;font-family:'DejaVu Sans';-inkscape-font-specification:DejaVuSans;writing-mode:lr-tb;fill:#000000;fill-opacity:1;fill-rule:nonzero;stroke:none"
         id="text544"><tspan
           x="0 5.9899998 8.9799995 14.98 20.98 26.98"
           y="0"
           sodipodi:role="line"
           id="tspan542">1.024k</tspan></text>
<text
         transform="translate(319,543.5)"
         style="font-variant:normal;font-weight:bold;font-size:10px;font-family:'DejaVu Sans';-inkscape-font-specification:DejaVuSans-Bold;writing-mode:lr-tb;fill:#000000;fill-opacity:1;fill-rule:nonzero;stroke:none"
         id="text548"><tspan
           x="0 6.9899998 13.99 20.98 25.98 32.98 37.98 40.970001 46.970001 51.970001 58.970001 65.959999 72.949997 79.949997 86.940002 92.93 99.919998 102.92 107.92 115.91 121.91 126.91"
           y="0"
           sodipodi:role="line"
           id="tspan546">Center Frequency (Hz):</tspan></text>
<text
         transform="translate(452.9,543.5)"
         style="font-variant:normal;font-weight:normal;font-size:10px;font-family:'DejaVu Sans';-inkscape-font-specification:DejaVuSans;writing-mode:lr-tb;fill:#000000;fill-opacity:1;fill-rule:nonzero;stroke:none"
         id="text552"><tspan
           x="0 5.9899998 11.99 17.99 20.98 26.98"
           y="0"
           sodipodi:role="line"
           id="tspan550">106.7M</tspan></text>
<text
         transform="translate(319,559.5)"
         style="font-variant:normal;font-weight:bold;font-size:10px;font-family:'DejaVu Sans';-inkscape-font-specification:DejaVuSans-Bold;writing-mode:lr-tb;fill:#000000;fill-opacity:1;fill-rule:nonzero;stroke:none"
         id="text556"><tspan
           x="0 8 14.99 21.98 28.969999 37.959999 40.959999 47.950001 52.950001 59.939999 62.939999 67.940002 75.93 81.93 86.93"
           y="0"
           sodipodi:role="line"
           id="tspan554">Bandwidth (Hz):</tspan></text>
<text
         transform="translate(412.91,559.5)"
         style="font-variant:normal;font-weight:normal;font-size:10px;font-family:'DejaVu Sans';-inkscape-font-specification:DejaVuSans;writing-mode:lr-tb;fill:#000000;fill-opacity:1;fill-rule:nonzero;stroke:none"
         id="text560"><tspan
           x="0 6 8.9899998 14.99 20.98 26.98"
           y="0"
           sodipodi:role="line"
           id="tspan558">1.764M</tspan></text>
<path
         d="m 467,299.996 h 22 v 14.008 h -22 z"
         style="fill:#2196f3;fill-opacity:1;fill-rule:nonzero;stroke:none"
         id="path562"
         inkscape:connector-curvature="0" /><path
         d="m 467,299.996 h 22 v 14.008 h -22 z"
         style="fill:none;stroke:#0049a7;stroke-width:2;stroke-linecap:butt;stroke-linejoin:miter;stroke-miterlimit:10;stroke-dasharray:none;stroke-opacity:0.7"
         id="path564"
         inkscape:connector-curvature="0" /><text
         transform="translate(469,311.99609)"
         style="font-variant:normal;font-weight:normal;font-size:10.66699219px;font-family:'DejaVu Sans';-inkscape-font-specification:DejaVuSans;writing-mode:lr-tb;fill:#000000;fill-opacity:1;fill-rule:nonzero;stroke:none"
         id="text568"><tspan
           x="0 6.9868798 13.984426"
           y="0"
           sodipodi:role="line"
           id="tspan566">out</tspan></text>
<path
         d="m 325,299.996 h 14 v 14.008 h -14 z"
         style="fill:#2196f3;fill-opacity:1;fill-rule:nonzero;stroke:none"
         id="path570"
         inkscape:connector-curvature="0" /><path
         d="m 325,299.996 h 14 v 14.008 h -14 z"
         style="fill:none;stroke:#0049a7;stroke-width:2;stroke-linecap:butt;stroke-linejoin:miter;stroke-miterlimit:10;stroke-dasharray:none;stroke-opacity:0.7"
         id="path572"
         inkscape:connector-curvature="0" /><text
         transform="translate(327,311.99609)"
         style="font-variant:normal;font-weight:normal;font-size:10.66699219px;font-family:'DejaVu Sans';-inkscape-font-specification:DejaVuSans;writing-mode:lr-tb;fill:#000000;fill-opacity:1;fill-rule:nonzero;stroke:none"
         id="text576"><tspan
           x="0 2.9867578"
           y="0"
           sodipodi:role="line"
           id="tspan574">in</tspan></text>
<path
         d="m 339,263 h 128 v 88 H 339 Z"
         style="fill:#f1ecff;fill-opacity:1;fill-rule:nonzero;stroke:#616161;stroke-width:2;stroke-linecap:butt;stroke-linejoin:miter;stroke-miterlimit:10;stroke-dasharray:none;stroke-opacity:1"
         id="path578"
         inkscape:connector-curvature="0" /><text
         transform="translate(345,278.5)"
         style="font-variant:normal;font-weight:bold;font-size:10.66699219px;font-family:'DejaVu Sans';-inkscape-font-specification:DejaVuSans-Bold;writing-mode:lr-tb;fill:#000000;fill-opacity:1;fill-rule:nonzero;stroke:none"
         id="text582"><tspan
           x="0 8.0002441 14.987123 19.989943 23.979399 30.987612 38.977188 45.964069 49.953522 53.953644 61.953888 68.951439 74.946289 81.943832 92.930832 100.92041 104.90987 111.90741"
           y="0"
           sodipodi:role="line"
           id="tspan580">Rational Resampler</tspan></text>
<text
         transform="translate(344.5,294.5)"
         style="font-variant:normal;font-weight:bold;font-size:10px;font-family:'DejaVu Sans';-inkscape-font-specification:DejaVuSans-Bold;writing-mode:lr-tb;fill:#000000;fill-opacity:1;fill-rule:nonzero;stroke:none"
         id="text586"><tspan
           x="0 4 10.99 15.99 22.99 27.99 34.98 41.98 44.970001 51.959999 56.959999 59.950001 66.949997 73.940002"
           y="0"
           sodipodi:role="line"
           id="tspan584">Interpolation:</tspan></text>
<text
         transform="translate(425.43,294.5)"
         style="font-variant:normal;font-weight:normal;font-size:10px;font-family:'DejaVu Sans';-inkscape-font-specification:DejaVuSans;writing-mode:lr-tb;fill:#000000;fill-opacity:1;fill-rule:nonzero;stroke:none"
         id="text590"><tspan
           x="0"
           y="0"
           id="tspan588">1</tspan></text>
<text
         transform="translate(344.5,310.5)"
         style="font-variant:normal;font-weight:bold;font-size:10px;font-family:'DejaVu Sans';-inkscape-font-specification:DejaVuSans-Bold;writing-mode:lr-tb;fill:#000000;fill-opacity:1;fill-rule:nonzero;stroke:none"
         id="text594"><tspan
           x="0 8 15 20.99 23.98 33.970001 40.959999 45.959999 48.959999 55.959999 62.950001"
           y="0"
           sodipodi:role="line"
           id="tspan592">Decimation:</tspan></text>
<text
         transform="translate(414.43,310.5)"
         style="font-variant:normal;font-weight:normal;font-size:10px;font-family:'DejaVu Sans';-inkscape-font-specification:DejaVuSans;writing-mode:lr-tb;fill:#000000;fill-opacity:1;fill-rule:nonzero;stroke:none"
         id="text598"><tspan
           x="0"
           y="0"
           id="tspan596">5</tspan></text>
<text
         transform="translate(344.5,326.5)"
         style="font-variant:normal;font-weight:bold;font-size:10px;font-family:'DejaVu Sans';-inkscape-font-specification:DejaVuSans-Bold;writing-mode:lr-tb;fill:#000000;fill-opacity:1;fill-rule:nonzero;stroke:none"
         id="text602"><tspan
           x="0 6 12.99 19.98 25.98"
           y="0"
           sodipodi:role="line"
           id="tspan600">Taps:</tspan></text>
<text
         transform="translate(344.5,342.5)"
         style="font-variant:normal;font-weight:bold;font-size:10px;font-family:'DejaVu Sans';-inkscape-font-specification:DejaVuSans-Bold;writing-mode:lr-tb;fill:#000000;fill-opacity:1;fill-rule:nonzero;stroke:none"
         id="text606"><tspan
           x="0 6 11 17.99 23.98 28.98 31.969999 38.970001 45.959999 52.959999 55.950001 58.950001 65.940002 76.940002"
           y="0"
           sodipodi:role="line"
           id="tspan604">Fractional BW:</tspan></text>
<text
         transform="translate(428.43,342.5)"
         style="font-variant:normal;font-weight:normal;font-size:10px;font-family:'DejaVu Sans';-inkscape-font-specification:DejaVuSans;writing-mode:lr-tb;fill:#000000;fill-opacity:1;fill-rule:nonzero;stroke:none"
         id="text610"><tspan
           x="0"
           y="0"
           id="tspan608">0</tspan></text>
<path
         d="m 907,299.996 h 22 v 14.008 h -22 z"
         style="fill:#f57c00;fill-opacity:1;fill-rule:nonzero;stroke:none"
         id="path612"
         inkscape:connector-curvature="0" /><path
         d="m 907,299.996 h 22 v 14.008 h -22 z"
         style="fill:none;stroke:#a92f00;stroke-width:2;stroke-linecap:butt;stroke-linejoin:miter;stroke-miterlimit:10;stroke-dasharray:none;stroke-opacity:0.7"
         id="path614"
         inkscape:connector-curvature="0" /><text
         transform="translate(909,311.99609)"
         style="font-variant:normal;font-weight:normal;font-size:10.66699219px;font-family:'DejaVu Sans';-inkscape-font-specification:DejaVuSans;writing-mode:lr-tb;fill:#000000;fill-opacity:1;fill-rule:nonzero;stroke:none"
         id="text618"><tspan
           x="0 6.9868798 13.984426"
           y="0"
           sodipodi:role="line"
           id="tspan616">out</tspan></text>
<path
         d="m 789,299.996 h 14 v 14.008 h -14 z"
         style="fill:#f57c00;fill-opacity:1;fill-rule:nonzero;stroke:none"
         id="path620"
         inkscape:connector-curvature="0" /><path
         d="m 789,299.996 h 14 v 14.008 h -14 z"
         style="fill:none;stroke:#a92f00;stroke-width:2;stroke-linecap:butt;stroke-linejoin:miter;stroke-miterlimit:10;stroke-dasharray:none;stroke-opacity:0.7"
         id="path622"
         inkscape:connector-curvature="0" /><text
         transform="translate(791,311.99609)"
         style="font-variant:normal;font-weight:normal;font-size:10.66699219px;font-family:'DejaVu Sans';-inkscape-font-specification:DejaVuSans;writing-mode:lr-tb;fill:#000000;fill-opacity:1;fill-rule:nonzero;stroke:none"
         id="text626"><tspan
           x="0 2.9867578"
           y="0"
           sodipodi:role="line"
           id="tspan624">in</tspan></text>
<path
         d="m 803,287 h 104 v 40 H 803 Z"
         style="fill:#f1ecff;fill-opacity:1;fill-rule:nonzero;stroke:#616161;stroke-width:2;stroke-linecap:butt;stroke-linejoin:miter;stroke-miterlimit:10;stroke-dasharray:none;stroke-opacity:1"
         id="path628"
         inkscape:connector-curvature="0" /><text
         transform="translate(811,302.5)"
         style="font-variant:normal;font-weight:bold;font-size:10.66699219px;font-family:'DejaVu Sans';-inkscape-font-specification:DejaVuSans-Bold;writing-mode:lr-tb;fill:#000000;fill-opacity:1;fill-rule:nonzero;stroke:none"
         id="text632"><tspan
           x="0 10.997669 18.987246 22.9767 27.979521 31.968975 39.958553 43.958675 50.945553 54.945675 62.935253 69.9328 77.922379 83.927895"
           y="0"
           sodipodi:role="line"
           id="tspan630">Multiply Const</tspan></text>
<text
         transform="translate(810.5,318.5)"
         style="font-variant:normal;font-weight:bold;font-size:10px;font-family:'DejaVu Sans';-inkscape-font-specification:DejaVuSans-Bold;writing-mode:lr-tb;fill:#000000;fill-opacity:1;fill-rule:nonzero;stroke:none"
         id="text636"><tspan
           x="0 6.9899998 13.99 20.98 26.98 31.98 38.970001 45.959999 50.959999"
           y="0"
           sodipodi:role="line"
           id="tspan634">Constant:</tspan></text>
<text
         transform="translate(868.44,318.5)"
         style="font-variant:normal;font-weight:normal;font-size:10px;font-family:'DejaVu Sans';-inkscape-font-specification:DejaVuSans;writing-mode:lr-tb;fill:#000000;fill-opacity:1;fill-rule:nonzero;stroke:none"
         id="text640"><tspan
           x="0 6 12 18"
           y="0"
           sodipodi:role="line"
           id="tspan638">300m</tspan></text>
</g></g></svg>